1	r,r,r,r,r,r,8,8,10,8,6,8,5,5,1,1	R,R,R,R,R,R,47,47,49,47,45,47,56,56,52,52	1
2	8,8,6,5,6,6,3,3,5,5,1,1,3,3,0,0	47,47,45,44,45,45,54,54,44,44, 52, 52, 42, 42, 51, 51	1
3	1,1,1,0,1,3,5,6,8,7,5,7,8,6,5,3	40,40,52,51,52,54,56,57,59,58,56,58,59,57,56,54	8
4	5,5,5,5,5,3,1,5,3,1,0,3,1,0,1,10	56,56,56,56,56,54,52,56,54,52,51,54,52,51,52,49	8
5	0,0,3,3,6,6,6,6,6,6,6,6,5,5,5,5	51,51,54,54,57,57,57,57,57,57,57,57,56,56,56,56	1
6	5,5,5,5,3,3,3,3,3,3,1,1,0,0,3,3	56,56,56,56,54,54,54,54,54,54,52,52,51,51,54,54	1
7	3,3,8,8,5,5,5,5,5,5,5,1,10,10,10,10	54,54,47,47,56,56,56,56,56,56,56,52,49,49,49,49	1
8	10,10,10,10,3,3,3,3,3,3,3,0,8,8,8,8	49, 49, 49, 49,54,54,54,54,54,54,54,51,47,47,47,47    8
9	8,8,8,8,1,1,1,0,1,10,10,10,10,10	47,47,47,47,52,52,52,51,52,49,61,61,61,61	3
10	10,8,7,10,8,3,5,6,5,3,1,3,0,0,8,8	61,59,58,61,59,54,56,57,56,54,52,54,63,63,59,59	8
11	3,3,1,0,1,1,10,10,0,0,8,8,10,10,7,7	54,54,52,51,52,52,61,61,51,51,59,59,49,49,58,58	8
12	8,10,0,1,0,10,8,0,5,3,2,5,8,6,5,8	47,49,51,52,51,49,47,51,56,54,53,56,59,57,56,59	8
13	11,11,10,8,6,5,3,2,3,6,5,3,1,5,10,8	62,62,61,59,57,56,54,53,54,57,56,54,52,56,49,47	10
14	6,5,3,2,3,5,6,8,10,8,6,8,10,8,6,5	45,44,42,41,42,44,45,47,49,47,45,47,49,47,45,44	0
15	6,6,6,6,6,5,3,6,5,3,1,5,3,1,3,0	45,45,45,45,45,44,42,45,44,42,40,44,42,40,42,39	0
16	1,5,6,5,1,1,1,1,1,0,1,10,10,10,10,10	40,44,45,44,52,52,52,52,52,51,52,49,61,61,61,61	0
17	10,3,5,3,0,0,0,0,0,10,0,8,8,8,8,8	61,42,44,42,51,51,51,51,51,49,51,47,59,59,59,59	0
18	8,1,3,1,10,10,10,10,10,8,10,7,7,7,7,7	59,40,42,40,49,49,49,49,49,47,49,46,58,58,58,58	0
19	6,4,5,1,10,10,10,10,10,10,10,10,8,8,8,8	57,55,56,52,49,49,49,49,49,49,49,49,47,47,47,47	0
20	8,8,8,8,7,7,7,7,7,7,5,5,4,4,7,7	47,47,47,47,46,46,46,46,46,46,44,44,43,43,46,46	0
21	0,10,8,0,10,8,7,10,8,5,1,10,0,8,6,4	51,49,47,51,49,47,46,49,47,44,40,49,51,47,57,55	0
22	4,5,11,0,4,4,4,5,5,5,5,5,R,R,5,5	55,56,62,51,55,55,55,56,56,56,56,56,r,r,56,56	0
23	11,10,8,10,5,5,2,2,8,8,6,5,6,6,3,3	50,49,47,49,56,56,53,53,47,47,45,44,45,45,54,54	0
24	9,8,6,8,3,3,0,0,6,6,5,3,5,8,1,3	48,47,45,47,54,54,51,51,45,45,44,42,44,47,52,54	0
25	5,3,1,3,0,0,8,8,3,3,1,0,1,1,10	56,54,52,54,63,63,59,59,54,54,52,39,52,52,61	0
26	0,0,8,8,10,10,7,7,8,3,5,7,8,10,0,8	51,51,59,59,49,49,58,58,47,42,44,46,47,49,51,47	0
27	1,0,10,0,1,0,10,8,10,10,10,10,10,8,6,10	52,51,49,51,52,51,49,47,49,49,49,49,49,47,45,49	0
28	8,6,5,8,6,5,3,6,5,5,8,8,1,1,1,1	47,45,44,47,45,44,42,45,44,44,47,47,52,52,52,52	0
29	R,R,4,1,10,10,10,10,R,R,10,1,5,5,5,5	r,r,55,52,49,49,49,49,r,r,49,52,56,56,56,56 0
30	3,3,8,8,1,1,7,7,8,8,8,6,8,10,11,8    54,54,59,59,52,52,58,58,47,47,59,57,59,61,62,59	0
31	5,6,8,5,1,3,5,1,10,0,1,10,6,8,10,6	56,57,59,56,52,54,56,52,49,51,52,49,57,59,61,57	0
32	3,5,6,3,0,1,3,0,8,10,0,8,5,6,8,5	54,56,57,54,51,52,54,51,47,49,51,47,56,57,59,56	0
33	2,3,5,2,10,0,1,10,6,8,10,6,3,5,6,3	53,54,56,53,49,51,52,49,45,47,49,45,54,56,57,54	0
34	0,1,3,0,8,10,0,8,5,6,8,5,1,5,8,10	51,52,54,51,47,49,51,47,44,45,47,44,40,44,47,49	0
35	11,10,8,10,6,6,1,1,10,10,8,6,8,1,5,8	50,49,47,49,57,57,52,52,49,49,47,45,47,40,44,47	0
36	10,8,6,8,5,5,1,1,8,8,6,5,6,1,3,6	49,47,45,47,56,56,52,52,47,47,45,44,45,40,42,45	0
37	8,6,5,6,3,3,0,0,6,6,5,3,5,8,10,0	47,45,44,45,54,54,51,51,45,45,44,42,44,47,49,51	0
38	1,3,5,3,6,5,3,1,8,8,8,8,8,8,8,8	52,54,56,54,57,56,54,52,59,59,59,59,59,59,59,59	0
39	8,8,6,8,5,8,3,8,1,8,0,10,0,3,5,6	59,59,57,59,56,59,54,59,52,59,51,49,51,54,56,57	0
40	8,6,5,8,3,8,1,8,0,8,10,8,10,1,3,5	59,57,56,59,54,59,52,59,51,59,49,47,49,52,54,56	0
41	8,6,5,6,3,8,1,8,0,8,10,8,10,1,3,5	59,57,56,57,54,59,52,59,51,59,49,47,49,52,54,56	0
42	6,5,3,5,1,3,0,3,10,3,8,7,8,0,1,3	57,56,54,56,52,54,51,54,49,54,47,46,47,51,52,54	0
43	5,6,8,10,0,0,8,8,10,8,8,5,5,1,1	56,57,59,61,51,51,47,47,49,47,47,56,56,52,52	0
44	8,8,6,5,6,6,3,3,5,5,1,1,3,3,0,0	47,47,45,44,45,45,54,54,44,44,52,52,42,42,51,51	0
45	1,1,1,0,1,3,5,6,8,6,5,6,8,6,5,3	40,40,52,51,52,54,56,57,59,57,56,57,59,57,56,54	0
46	5,5,5,5,5,3,1,5,3,1,0,3,1,0,1,10	56,56,56,56,56,54,52,56,54,52,51,54,52,51,52,49	0
47	0,0,3,3,6,6,6,6,6,6,6,6,5,5,5,5	51,51,54,54,57,57,57,57,57,57,57,57,56,56,56,56	0
48	5,5,5,5,3,3,3,3,3,3,1,1,0,0,3,3	56,56,56,56,54,54,54,54,54,54,52,52,51,51,54,54	0
49	3,3,8,8,1,1,11,11,10,10,10,10,10,10,10,10	54,54,47,47,52,52,50,50,49,49,49,49,49,49,49,49	0
50	10,10,10,6,3,3,3,3,3,3,3,3,8,8,8,8	49,49,49,45,42,42,42,42,42,42,42,42,47,47,47,47	0
51	8,8,8,5,2,2,2,2,2,2,10,10,6,6,6,6	47,47,47,44,41,41,41,41,41,41,37,37,45,45,45,45	0
52	6,5,6,3,3,3,3,3,3,1,0,3,1,8,10,11	45,44,45,42,54,54,54,54,54,52,51,54,52,47,49,50	0
53	10,8,6,8,5,5,1,1,8,8,6,5,6,6,3,3	49,47,45,47,56,56,52,52,47,47,45,44,45,45,54,54	0
54	5,5,1,1,3,3,0,0,1,5,6,8,10,0,1,3	44,44,52,52,42,42,51,51,40,44,45,47,49,51,52,54	0
55	4,3,1,3,5,7,8,10,1,0,10,8,3,3,6,6	55,54,52,54,56,58,59,61,52,51,49,47,54,54,45,45	0
56	5,5,1,1,3,3,0,0,1,1,1,1,1,1,1,1	44,44,52,52,42,42,51,51,52,52,52,52,52,52,52,52	0
