1	r,r,r,r,r,r,r,r,r,r,r,r,r,r,r,r	R,R,R,R,R,R,R,R,R,R,R,R,R,R,R,R	1
2	r,r,r,r,r,r,r,r,r,r,r,r,r,r,r,r	R,R,R,R,R,R,R,R,R,R,R,R,R,R,R,R	1
3	r,r,r,r,r,r,1,1,5,3,1,3,0,0,8,8	R,R,R,R,R,R,40,40,44,42,40,42,51,51,47,47	8
4	3,3,1,0,1,1,10,10,0,0,8,8,10,10,7,7	42,42,40,39,40,40,49,49,39,39,47,47,37,37,46,46	8
5	8,8,8,7,8,10,8,1,0,10,0,1,0,10,8	35,35,47,46,47,49,47,52,51,49,51,52,51,49,47	1
6	10,10,10,10,10,8,6,10,8,6,5,8,6,5,6,3	49,49,49,49,49,47,45,49,47,45,44,47,45,44,45,42	1
7	5,5,5,5,r,r,8,8,1,1,1,1,1,1,1,10	44,44,44,44,R,R,47,47,52,52,52,52,52,52,64,49	1
8	3,3,3,3,r,r,7,7,0,0,0,0,0,0,0,8	42,42,42,42,R,R,46,46,51,51,51,51,51,51,51,47	8
9	1,1,1,1,R,R,5,5,10,10,10,10,10,1,3,10	40,40,40,40,r,r,44,44,49,49,49,49,49,52,54,61	0
10	0,0,0,0,R,R,8,8,8,7,5,7,8,6,5,3	51,51,51,51,r,r,47,47,47,46,44,46,47,45,44,42	1
11	5,5,5,5,5,3,1,5,3,1,0,3,1,0,1,10	44,44,44,44,44,42,40,44,42,40,39,42,40,39,40,37	1
12	0,0,3,3,8,8,8,8,R,R,11,8,5,5,5,5	39,39,42,42,47,47,47,47,r,r,38,35,32,32,32,32	8
13	R,R,5,8,11,11,11,11,10,10,11,11,10,10,2,2	r,r,32,35,38,38,38,38,37,37,38,38,37,37,29,29	0
14	3,3,3,3,R,R,R,R,R,R,R,R,R,R,R,R	30,30,30,30,r,r,r,r,r,r,r,r,r,r,r,r	0
15	R,R,R,R,R,R,R,R,R,R,R,R,R,R,R,R	r,r,r,r,r,r,r,r,r,r,r,r,r,r,r,r	0
16	R,R,R,R,R,R,5,5,10,10,10,10,10,1,3,10	r,r,r,r,r,r,44,44,49,49,49,49,49,52,54,61	0
17	0,0,R,R,R,R,3,3,8,8,8,8,8,1,1,8	51,51,r,r,r,r,42,42,47,47,47,47,47,52,52,47	0
18	10,10,R,R,R,R,1,1,7,7,7,7,7,10,0,7	49,49,r,r,r,r,40,40,46,46,46,46,46,49,51,46	0
19	8,8,8,8,R,R,0,0,1,0,10,0,8,8,5,5	47,47,47,47,r,r,39,39,40,39,37,39,47,47,44,44	0
20	0,0,10,8,10,10,7,7,8,8,5,5,7,7,4,4	39,39,37,35,37,37,46,46,35,35,44,44,34,34,31,31	0
21	5,5,5,5,5,5,4,4,5,5,3,3,5,5,10,10	32,32,32,32,32,32,31,31,32,32,30,30,32,32,37,37	0
22	8,8,7,5,7,10,7,7,7,10,0,8,5,6,8,5	35,35,34,32,34,37,34,34,34,37,39,35,32,33,35,32	0
23	2,3,5,2,10,2,5,10,3,6,10,2,3,5,6,3	29,30,32,29,25,29,32,37,30,33,37,41,42,44,45,42	0
24	0,1,3,0,8,8,8,8,8,8,10,0,1,1,R,R	39,40,42,39,35,35,35,35,35,35,37,39,40,40,r,r	0
25	R,R,R,R,R,R,R,R,R,R,R,R,R,R,R,R	r,r,r,r,r,r,r,r,r,r,r,r,r,r,r,r	0
26	10,10,8,8,7,7,10,10,3,R,R,R,R,R,8,8	49,49,47,47,46,46,49,49,42,r,r,r,r,r,35,35	0
27	10,8,6,10,5,5,1,1,8,8,6,5,6,6,3,3	37,35,33,37,44,44,40,40,35,35,33,32,33,33,42,42	0
28	5,5,1,1,3,3,0,0,1,1,1,1,R,R,8,5	32,32,40,40,30,30,39,39,40,40,40,40,r,r,59,56	0
29	1,1,1,1,R,R,1,10,7,7,7,7,1,1	52,52,52,52,r,r,52,49,46,46,46,46,52,52	0
30	11,11,11,11,10,10,10,10,8,8,R,R,R,R,R,R	50,50,50,50,49,49,49,49,47,47,r,r,r,r,r,r	0
31	R,R,11,8,5,5,R,R,R,R,10,6,3,3,R,R	r,r,38,35,32,32,r,r,r,r,37,33,30,30,r,r	0
32	R,R,10,6,3,3,R,R,R,R,8,5,2,2,R,R	r,r,37,33,30,30,r,r,r,r,35,32,29,29,r,r	0
33	R,R,8,5,2,2,R,R,R,R,6,3,0,0,R,R	r,r,35,32,29,29,r,r,r,r,33,30,27,27,r,r	0
34	R,R,6,3,0,0,R,R,R,R,R,R,R,R,R,R	r,r,33,30,27,27,r,r,r,r,r,r,r,r,r,r	0
35	R,R,R,R,R,R,R,R,R,R,R,R,R,R,R,R	r,r,r,r,r,r,r,r,r,r,r,r,r,r,r,r	0
36	R,R,R,R,R,R,R,R,R,R,R,R,R,R,R,R	r,r,r,r,r,r,r,r,r,r,r,r,r,r,r,r	0
37	R,R,R,R,R,R,R,R,R,R,R,R,R,R,R,R	r,r,r,r,r,r,r,r,r,r,r,r,r,r,r,r	0
38	R,R,R,R,R,R,R,R,R,R,R,R,R,R,R,R	r,r,r,r,r,r,r,r,r,r,r,r,r,r,r,r	0
39	R,R,R,R,R,R,R,R,R,R,R,R,R,R,R,R	r,r,r,r,r,r,r,r,r,r,r,r,r,r,r,r	0
40	R,R,R,R,R,R,R,R,R,R,R,R,R,R,R,R	r,r,r,r,r,r,r,r,r,r,r,r,r,r,r,r	0
41	R,R,R,R,R,R,R,R,R,R,R,R,R,R,R,R	r,r,r,r,r,r,r,r,r,r,r,r,r,r,r,r	0
42	R,R,R,R,R,R,R,R,R,R,R,R,R,R,R,R	r,r,r,r,r,r,r,r,r,r,r,r,r,r,r,r	0
43	R,R,R,R,R,R,R,R,R,R,R,R,R,R,R,R	r,r,r,r,r,r,r,r,r,r,r,r,r,r,r,r	0
44	R,R,R,R,R,R,R,R,R,R,R,R,R,R,R,R	r,r,r,r,r,r,r,r,r,r,r,r,r,r,r,r	0
45	R,R,R,R,R,R,1,3,5,3,1,3,0,0,8,8	r,r,r,r,r,r,40,42,44,42,40,42,51,51,47,47	0
46	3,3,1,0,1,1,10,10,0,0,8,8,10,10,7,7	42,42,40,39,40,40,49,49,39,39,47,47,37,37,46,46	0
47	8,8,8,7,8,10,0,8,1,0,10,0,1,0,10,8	35,35,47,46,47,49,51,47,52,51,49,51,52,51,49,47	0
48	10,10,10,10,10,8,6,10,8,6,5,8,6,5,6,3	49,49,49,49,49,47,45,49,47,45,44,47,45,44,45,42	0
49	5,5,5,5,5,5,5,5,5,5,1,1,6,6,5,5	44,44,44,44,44,44,44,44,44,44,40,40,45,45,44,44	0
50	6,6,6,6,6,6,6,3,8,8,8,8,R,R,0,0	45,45,45,45,45,45,45,42,35,35,35,35,r,r,39,39	0
51	5,5,5,5,5,5,5,2,6,6,6,6,R,R,10,10	44,44,44,44,44,44,44,41,33,33,33,33,r,r,37,37	0
52	3,3,3,3,3,6,8,3,5,5,5,5,R,R,1,1	42,42,42,42,42,45,47,42,44,44,44,44,r,r,40,40	0
53	1,0,10,0,1,0,10,8,10,10,10,10,10,8,6,10	40,39,37,39,40,39,37,35,37,37,37,37,37,35,33,37	0
54	8,6,5,8,6,5,3,6,5,8,10,0,1,0,10,8	35,33,32,35,33,32,30,33,32,35,37,39,40,39,37,35	0
55	7,8,10,7,3,3,3,3,3,3,5,6,8,10,0,8	34,35,37,34,30,30,30,30,30,30,32,33,35,37,39,35	0
56	1,1,8,8,3,3,6,6,5,5,5,5,5,5,5,5	40,40,47,47,42,42,45,45,44,44,44,44,44,44,44,44	0
